{
	"coord": {
		"lon": 18.69,
		"lat": 54.36
	},
	"weather": [
		{
			"id": 802,
			"main": "Clouds",
			"description": "scattered clouds",
			"icon": "03n"
		}
	],
	"base": "cmc stations",
	"main": {
		"temp": 3.11,
		"pressure": 1027.62,
		"humidity": 99,
		"temp_min": 3.11,
		"temp_max": 3.11,
		"sea_level": 1032.52,
		"grnd_level": 1027.62
	},
	"wind": {
		"speed": 6.81,
		"deg": 253.009
	},
	"clouds": {
		"all": 44
	},
	"dt": 1454700806,
	"sys": {
		"message": 0.0031,
		"country": "PL",
		"sunrise": 1454653558,
		"sunset": 1454686399
	},
	"id": 7531002,
	"name": "Gdańsk",
	"cod": 200
}
